\relax 
\providecommand\hyper@newdestlabel[2]{}
\providecommand\zref@newlabel[2]{}
\providecommand\HyperFirstAtBeginDocument{\AtBeginDocument}
\HyperFirstAtBeginDocument{\ifx\hyper@anchor\@undefined
\global\let\oldcontentsline\contentsline
\gdef\contentsline#1#2#3#4{\oldcontentsline{#1}{#2}{#3}}
\global\let\oldnewlabel\newlabel
\gdef\newlabel#1#2{\newlabelxx{#1}#2}
\gdef\newlabelxx#1#2#3#4#5#6{\oldnewlabel{#1}{{#2}{#3}}}
\AtEndDocument{\ifx\hyper@anchor\@undefined
\let\contentsline\oldcontentsline
\let\newlabel\oldnewlabel
\fi}
\fi}
\global\let\hyper@last\relax 
\gdef\HyperFirstAtBeginDocument#1{#1}
\providecommand\HyField@AuxAddToFields[1]{}
\providecommand\HyField@AuxAddToCoFields[2]{}
\providecommand \oddpage@label [2]{}
\babel@aux{english}{}
\@writefile{toc}{\contentsline {chapter}{\numberline {1}Preface}{1}{chapter.1}}
\@writefile{lof}{\addvspace {10\p@ }}
\@writefile{lot}{\addvspace {10\p@ }}
\@writefile{toc}{\contentsline {chapter}{\numberline {2}Introduction to Molecular Biology}{5}{chapter.2}}
\@writefile{lof}{\addvspace {10\p@ }}
\@writefile{lot}{\addvspace {10\p@ }}
\@writefile{toc}{\contentsline {section}{\numberline {2.1}DNA - Deoxyribonucleic acid}{5}{section.2.1}}
\@writefile{lof}{\contentsline {figure}{\numberline {2.1}{\ignorespaces Purines and Pyrimidines\relax }}{7}{figure.caption.4}}
\@writefile{toc}{\contentsline {section}{\numberline {2.2}The Cell}{9}{section.2.2}}
\@writefile{toc}{\contentsline {section}{\numberline {2.3}Proteins}{12}{section.2.3}}
\@writefile{toc}{\contentsline {section}{\numberline {2.4}The central dogma of molecular biology}{17}{section.2.4}}
\@writefile{toc}{\contentsline {chapter}{\numberline {3}Pattern Matching}{25}{chapter.3}}
\@writefile{lof}{\addvspace {10\p@ }}
\@writefile{lot}{\addvspace {10\p@ }}
\@writefile{toc}{\contentsline {section}{\numberline {3.1}Pattern matching with FA}{27}{section.3.1}}
\@writefile{toc}{\contentsline {section}{\numberline {3.2}Questions}{31}{section.3.2}}
\@writefile{toc}{\contentsline {section}{\numberline {3.3}Knuth, Morris and Pratt Algorithm}{32}{section.3.3}}
\@writefile{toc}{\contentsline {subsection}{\numberline {3.3.1}Prefix function}{32}{subsection.3.3.1}}
\@writefile{toc}{\contentsline {subsection}{\numberline {3.3.2}Knuth, Morris, Pratt Algorithm}{35}{subsection.3.3.2}}
\@writefile{toc}{\contentsline {section}{\numberline {3.4}Suffix Trees}{36}{section.3.4}}
\@writefile{toc}{\contentsline {subsection}{\numberline {3.4.1}Suffix tree definition}{37}{subsection.3.4.1}}
\@writefile{toc}{\contentsline {subsection}{\numberline {3.4.2}Pattern matching by suffix tree}{38}{subsection.3.4.2}}
\@writefile{toc}{\contentsline {subsection}{\numberline {3.4.3}Naive algorithm}{39}{subsection.3.4.3}}
\@writefile{toc}{\contentsline {subsection}{\numberline {3.4.4}Ukkonen algorithm}{40}{subsection.3.4.4}}
\@writefile{lof}{\contentsline {figure}{\numberline {3.1}{\ignorespaces Skip/Count execution.\relax }}{46}{figure.caption.38}}
\@writefile{lof}{\contentsline {figure}{\numberline {3.2}{\ignorespaces Edge labels compression example.\relax }}{48}{figure.caption.40}}
\@writefile{lof}{\contentsline {figure}{\numberline {3.3}{\ignorespaces Rule 1 optimization.\relax }}{50}{figure.caption.42}}
\@writefile{toc}{\contentsline {subsection}{\numberline {3.4.5}Generalized suffix tree for a set of strings}{52}{subsection.3.4.5}}
\@writefile{toc}{\contentsline {section}{\numberline {3.5}Suffix array}{54}{section.3.5}}
\@writefile{lof}{\contentsline {figure}{\numberline {3.4}{\ignorespaces Example of the correspondence between suffix tree and suffix array.\relax }}{55}{figure.caption.45}}
\@writefile{toc}{\contentsline {chapter}{\numberline {4}Pair Alignment}{64}{chapter.4}}
\@writefile{lof}{\addvspace {10\p@ }}
\@writefile{lot}{\addvspace {10\p@ }}
\@writefile{toc}{\contentsline {section}{\numberline {4.1}Homology}{65}{section.4.1}}
\@writefile{toc}{\contentsline {section}{\numberline {4.2}Sequence alignment}{68}{section.4.2}}
\@writefile{toc}{\contentsline {section}{\numberline {4.3}Method of alignment}{70}{section.4.3}}
\@writefile{toc}{\contentsline {subsection}{\numberline {4.3.1}Dot matrix}{70}{subsection.4.3.1}}
\@writefile{toc}{\contentsline {subsection}{\numberline {4.3.2}Gap Penalties}{72}{subsection.4.3.2}}
\@writefile{toc}{\contentsline {subsection}{\numberline {4.3.3}Scoring matrices}{74}{subsection.4.3.3}}
\@writefile{toc}{\contentsline {subsection}{\numberline {4.3.4}Empirical substitution matrices}{76}{subsection.4.3.4}}
\@writefile{toc}{\contentsline {section}{\numberline {4.4}Pair alignment Methods}{79}{section.4.4}}
\@writefile{toc}{\contentsline {subsection}{\numberline {4.4.1}Distance between two strings}{80}{subsection.4.4.1}}
\@writefile{toc}{\contentsline {subsection}{\numberline {4.4.2}Pair Alignments}{82}{subsection.4.4.2}}
\@writefile{toc}{\contentsline {subsection}{\numberline {4.4.3}Approximated Pattern Matching}{83}{subsection.4.4.3}}
\@writefile{toc}{\contentsline {subsection}{\numberline {4.4.4}Semi-global Alignments}{88}{subsection.4.4.4}}
\@writefile{toc}{\contentsline {subsection}{\numberline {4.4.5}Smith-Waterman Algorithm}{91}{subsection.4.4.5}}
\@writefile{toc}{\contentsline {section}{\numberline {4.5}Heuristic Methods}{95}{section.4.5}}
\@writefile{toc}{\contentsline {subsection}{\numberline {4.5.1}Results Evaluation}{98}{subsection.4.5.1}}
\@writefile{toc}{\contentsline {chapter}{\numberline {5}Multiple Alignment}{101}{chapter.5}}
\@writefile{lof}{\addvspace {10\p@ }}
\@writefile{lot}{\addvspace {10\p@ }}
\@writefile{toc}{\contentsline {section}{\numberline {5.1}Aligning three sequences}{103}{section.5.1}}
\@writefile{toc}{\contentsline {section}{\numberline {5.2}Heuristic method for multiple alignment: MSA}{104}{section.5.2}}
\@writefile{toc}{\contentsline {section}{\numberline {5.3}Scores}{106}{section.5.3}}
\@writefile{toc}{\contentsline {subsection}{\numberline {5.3.1}Representation of MSA: Profile}{109}{subsection.5.3.1}}
\@writefile{toc}{\contentsline {subsection}{\numberline {5.3.2}Aligning alignments}{110}{subsection.5.3.2}}
\@writefile{toc}{\contentsline {section}{\numberline {5.4}Heuristic methods}{111}{section.5.4}}
\@writefile{toc}{\contentsline {subsection}{\numberline {5.4.1}Carillo-Lipman}{112}{subsection.5.4.1}}
\@writefile{toc}{\contentsline {subsection}{\numberline {5.4.2}Heuristic Greedy Approach}{113}{subsection.5.4.2}}
\@writefile{toc}{\contentsline {subsection}{\numberline {5.4.3}Progressive Alignments (ClustalW)}{115}{subsection.5.4.3}}
\@writefile{toc}{\contentsline {subsection}{\numberline {5.4.4}Deterministic Iterative Alignments}{117}{subsection.5.4.4}}
\@writefile{toc}{\contentsline {subsection}{\numberline {5.4.5}Stochastic Iterative Alignment}{118}{subsection.5.4.5}}
\@writefile{toc}{\contentsline {subsection}{\numberline {5.4.6}Partial Order Multiple Alignment (POA)}{119}{subsection.5.4.6}}
\@writefile{toc}{\contentsline {section}{\numberline {5.5}Multiple Alignments Remarks}{121}{section.5.5}}
\@writefile{toc}{\contentsline {chapter}{\numberline {6}Protein structure determination}{123}{chapter.6}}
\@writefile{lof}{\addvspace {10\p@ }}
\@writefile{lot}{\addvspace {10\p@ }}
\@writefile{toc}{\contentsline {section}{\numberline {6.1}Computational methods}{125}{section.6.1}}
\@writefile{toc}{\contentsline {chapter}{\numberline {7}Introduction to Phylogenetic trees}{130}{chapter.7}}
\@writefile{lof}{\addvspace {10\p@ }}
\@writefile{lot}{\addvspace {10\p@ }}
\@writefile{toc}{\contentsline {section}{\numberline {7.1}Large scale mutations}{133}{section.7.1}}
\@writefile{toc}{\contentsline {section}{\numberline {7.2}Evolutionary models for nucleotides}{135}{section.7.2}}
\@writefile{toc}{\contentsline {section}{\numberline {7.3}Phylogenetic trees}{140}{section.7.3}}
\@writefile{toc}{\contentsline {section}{\numberline {7.4}Distance methods.}{145}{section.7.4}}
\@writefile{toc}{\contentsline {section}{\numberline {7.5}Sites Methods}{158}{section.7.5}}
\@writefile{toc}{\contentsline {section}{\numberline {7.6}Assessing the result and consensus}{163}{section.7.6}}
